{
  "rulesDirectory": [
      "node_modules/codelyzer"
  ],
  "rules": {
      // base tslint rules
      "arrow-return-shorthand": true,
      "no-duplicate-imports": true,
      "no-angle-bracket-type-assertion": true,
      "no-conditional-assignment": true,
      "no-non-null-assertion": true,
      "no-unnecessary-qualifier": true,
      "no-string-throw": true,
      "encoding": true,
      "no-floating-promises": false,
      "no-implicit-dependencies": [
          true,
          [   "@pages",
              "@shared",
              "@models",
              "@services",
              "@assets",
              "@constants",
              "@env"
          ]
      ],
      "no-import-side-effect": [
          true,
          {
              "ignore-module": "^(?!rxjs\/)"
          }
      ],
      "align": [
          true,
          "elements",
          "members",
          "parameters",
          "statements"
      ],
      "max-line-length": [
          true,
          160
      ],
      "no-inferrable-types": true,
      "class-name": true,
      "comment-format": [
          true,
          "check-space"
      ],
      "indent": [
          true,
          "spaces"
      ],
      "eofline": true,
      "import-spacing": true,
      "match-default-export-name": true,
      "newline-before-return": true,
      "no-consecutive-blank-lines": [
          true,
          2
      ],
      "no-duplicate-variable": true,
      "no-eval": true,
      "no-any": false,
      "no-arg": true,
      "no-internal-module": true,
      "no-trailing-whitespace": true,
      "no-unused-expression": false,
      "no-var-keyword": true,
      "one-line": [
          true,
          "check-catch",
          "check-else",
          "check-finally",
          "check-open-brace",
          "check-whitespace"
      ],
      "ordered-imports": [
          true,
          {
              "import-sources-order": "lowercase-last",
              "named-imports-order": "lowercase-last"
          }
      ],
      "prefer-const": true,
      "quotemark": [
          true,
          "single",
          "avoid-escape"
      ],
      "semicolon": [
          true,
          "always"
      ],
      "trailing-comma": [
          true,
          {
              "multiline": "always",
              "singleline": "never"
          }
      ],
      "typedef-whitespace": [
          true,
          {
              "call-signature": "nospace",
              "index-signature": "nospace",
              "parameter": "nospace",
              "property-declaration": "nospace",
              "variable-declaration": "nospace"
          }
      ],
      "curly": false,
      "file-header": [
          false
      ],
      "variable-name": [
          true,
          "ban-keywords",
          "check-format",
          "allow-leading-underscore",
          "allow-pascal-case"
      ],
      "whitespace": [
          true,
          "check-branch",
          "check-decl",
          "check-module",
          "check-preblock",
          "check-operator",
          "check-separator",
          "check-type",
          "check-typecast"
      ]
  }
}
